{
  "settings": {
    "number_of_shards": 6,
    "number_of_replicas": 0,
    "analysis": {
      "analyzer": {
        "trypsin_analyzer": {
          "type": "custom",
          "tokenizer": "trypsin_tokenizer",
          "filter": [
            "illegal_peptide_filter"
          ]
        },
        "equateIL_trypsin_analyzer": {
          "type": "custom",
          "char_filter": [
            "equateIL_char_filter"
          ],
          "tokenizer": "trypsin_tokenizer",
          "filter": [
            "illegal_peptide_filter"
          ]
        }
      },
      "char_filter": {
        "equateIL_char_filter": {
          "type": "mapping",
          "mappings": [
            "I => L"
          ]
        }
      },
      "tokenizer": {
        "trypsin_tokenizer": {
          "type": "pattern",
          "pattern": "(?<=[KR])(?!P)",
          "lowercase": false
        }
      },
      "filter": {
        "illegal_peptide_filter": {
          "type": "length",
          "max": 70
        }
      }
    }
  },
  "mappings": {
    "_doc": {
      "dynamic": "strict",
      "properties": {
        "pid": {
          "type": "keyword"
        },
        "tid": {
          "type": "integer"
        },
        "gi": {
          "type": "integer"
        },
        "uid": {
          "type": "text",
          "index": false
        },
        "goArr": {
          "properties": {
            "id": {
              "type": "keyword"
            },
            "category": {
              "type": "keyword"
            }
          }
        },
        "seq": {
          "type": "text",
          "analyzer": "trypsin_analyzer",
          "fields": {
            "eqILSeq": {
              "type": "text",
              "analyzer": "equateIL_trypsin_analyzer"
            }
          }
        }
      }
    }
  }
}